package com.sample

import com.sample.MovieDirectorMain

global MovieDirectorMain frame

rule "Init"
    when
    then
    	int questionIndex = 0;
        String question = questions(questionIndex);
        String[] availableAnswers = availableAnswers(questionIndex);
		String answer = frame.askQuestion(question, availableAnswers);
		insert(new Answer(question, answer));
end

rule "Just a train going into a tunnel"
	when
		Answer(
			question == questions(0), 
			answer == availableAnswers(0)[0])
	then
		int questionIndex = 1;
        String question = questions(questionIndex);
        String[] availableAnswers = availableAnswers(questionIndex);
		String answer = frame.askQuestion(question, availableAnswers);
		insert(new Answer(question, answer));
end

rule "Creepy movies"
	when
		Answer(
			question == questions(1),
			answer == availableAnswers(1)[0])
	then
		int questionIndex = 2;
        String question = questions(questionIndex);
        String[] availableAnswers = availableAnswers(questionIndex);
		String answer = frame.askQuestion(question, availableAnswers);
		insert(new Answer(question, answer));
end

rule "Creepy movies without a twist"
	when
		Answer(
			question == questions(1),
			answer == availableAnswers(1)[0]) 
		Answer(
			question == questions(2),
			answer == availableAnswers(2)[1])
	then
		int questionIndex = 3;
        String question = questions(questionIndex);
        String[] availableAnswers = availableAnswers(questionIndex);
		String answer = frame.askQuestion(question, availableAnswers);
		insert(new Answer(question, answer));
end

rule "Creepy movies without a twist not an animation"
	when
		Answer(
			question == questions(1),
			answer == availableAnswers(1)[0]) 
		Answer(
			question == questions(2),
			answer == availableAnswers(2)[1])
		Answer(
			question == questions(3),
			answer == availableAnswers(3)[1])
	then
		int questionIndex = 4;
        String question = questions(questionIndex);
        String[] availableAnswers = availableAnswers(questionIndex);
		String answer = frame.askQuestion(question, availableAnswers);
		insert(new Answer(question, answer));
end

rule "A little creepy movies"
	when
		Answer(
			question == questions(1),
			answer == availableAnswers(1)[1])
	then
		int questionIndex = 5;
        String question = questions(questionIndex);
        String[] availableAnswers = availableAnswers(questionIndex);
		String answer = frame.askQuestion(question, availableAnswers);
		insert(new Answer(question, answer));
end

rule "A little creepy comfortable movies"
	when
		Answer(
			question == questions(1),
			answer == availableAnswers(1)[1])
		Answer(
			question == questions(5),
			answer == availableAnswers(5)[0])
	then
		int questionIndex = 6;
        String question = questions(questionIndex);
        String[] availableAnswers = availableAnswers(questionIndex);
		String answer = frame.askQuestion(question, availableAnswers);
		insert(new Answer(question, answer));
end

rule "No creepiness"
	when
		Answer(
			question == questions(1),
			answer == availableAnswers(1)[2])
	then
		int questionIndex = 7;
        String question = questions(questionIndex);
        String[] availableAnswers = availableAnswers(questionIndex);
		String answer = frame.askQuestion(question, availableAnswers);
		insert(new Answer(question, answer));
end

rule "A comedy"
	when
		Answer(
			question == questions(7),
			answer == availableAnswers(7)[0])
	then
		int questionIndex = 8;
        String question = questions(questionIndex);
        String[] availableAnswers = availableAnswers(questionIndex);
		String answer = frame.askQuestion(question, availableAnswers);
		insert(new Answer(question, answer));
end

rule "A comedy without Johan Hill"
	when
		Answer(
			question == questions(7),
			answer == availableAnswers(7)[0])
		Answer(
			question == questions(8),
			answer == availableAnswers(8)[1])
	then
		int questionIndex = 9;
        String question = questions(questionIndex);
        String[] availableAnswers = availableAnswers(questionIndex);
		String answer = frame.askQuestion(question, availableAnswers);
		insert(new Answer(question, answer));
end

rule "A gross comedy without Johan Hill"
	when
		Answer(
			question == questions(7),
			answer == availableAnswers(7)[0])
		Answer(
			question == questions(8),
			answer == availableAnswers(8)[1])
		Answer(
			question == questions(9),
			answer == availableAnswers(9)[1])
	then
		int questionIndex = 10;
        String question = questions(questionIndex);
        String[] availableAnswers = availableAnswers(questionIndex);
		String answer = frame.askQuestion(question, availableAnswers);
		insert(new Answer(question, answer));
end

rule "A quirky comedy without Johan Hill"
	when
		Answer(
			question == questions(7),
			answer == availableAnswers(7)[0])
		Answer(
			question == questions(8),
			answer == availableAnswers(8)[1])
		Answer(
			question == questions(9),
			answer == availableAnswers(9)[0])
	then
		int questionIndex = 11;
        String question = questions(questionIndex);
        String[] availableAnswers = availableAnswers(questionIndex);
		String answer = frame.askQuestion(question, availableAnswers);
		insert(new Answer(question, answer));
end

rule "An action movie"
	when
		Answer(
			question == questions(7),
			answer == availableAnswers(7)[1])
	then
		int questionIndex = 12;
        String question = questions(questionIndex);
        String[] availableAnswers = availableAnswers(questionIndex);
		String answer = frame.askQuestion(question, availableAnswers);
		insert(new Answer(question, answer));
end

rule "An normal action movie"
	when
		Answer(
			question == questions(7),
			answer == availableAnswers(7)[1])
		Answer(
			question == questions(12),
			answer == availableAnswers(12)[1])
	then
		int questionIndex = 13;
        String question = questions(questionIndex);
        String[] availableAnswers = availableAnswers(questionIndex);
		String answer = frame.askQuestion(question, availableAnswers);
		insert(new Answer(question, answer));
end

rule "A drama"
	when
		Answer(
			question == questions(7),
			answer == availableAnswers(7)[2])
	then
		int questionIndex = 14;
        String question = questions(questionIndex);
        String[] availableAnswers = availableAnswers(questionIndex);
		String answer = frame.askQuestion(question, availableAnswers);
		insert(new Answer(question, answer));
end

rule "A foreign drama"
	when
		Answer(
			question == questions(7),
			answer == availableAnswers(7)[2])
		Answer(
			question == questions(14),
			answer == availableAnswers(14)[0])
	then
		int questionIndex = 15;
        String question = questions(questionIndex);
        String[] availableAnswers = availableAnswers(questionIndex);
		String answer = frame.askQuestion(question, availableAnswers);
		insert(new Answer(question, answer));
end

rule "A normal foreign drama"
	when
		Answer(
			question == questions(7),
			answer == availableAnswers(7)[2])
		Answer(
			question == questions(14),
			answer == availableAnswers(14)[0])
		Answer(
			question == questions(15),
			answer == availableAnswers(15)[1])
	then
		int questionIndex = 16;
        String question = questions(questionIndex);
        String[] availableAnswers = availableAnswers(questionIndex);
		String answer = frame.askQuestion(question, availableAnswers);
		insert(new Answer(question, answer));
end

rule "A normal foreign drama without much rain"
	when
		Answer(
			question == questions(7),
			answer == availableAnswers(7)[2])
		Answer(
			question == questions(14),
			answer == availableAnswers(14)[0])
		Answer(
			question == questions(15),
			answer == availableAnswers(15)[1])
		Answer(
			question == questions(16),
			answer == availableAnswers(16)[1])
	then
		int questionIndex = 17;
        String question = questions(questionIndex);
        String[] availableAnswers = availableAnswers(questionIndex);
		String answer = frame.askQuestion(question, availableAnswers);
		insert(new Answer(question, answer));
end

rule "A national drama"
	when
		Answer(
			question == questions(7),
			answer == availableAnswers(7)[2])
		Answer(
			question == questions(14),
			answer == availableAnswers(14)[1])
	then
		int questionIndex = 18;
        String question = questions(questionIndex);
        String[] availableAnswers = availableAnswers(questionIndex);
		String answer = frame.askQuestion(question, availableAnswers);
		insert(new Answer(question, answer));
end

rule "A national drama with loner white guys"
	when
		Answer(
			question == questions(7),
			answer == availableAnswers(7)[2])
		Answer(
			question == questions(14),
			answer == availableAnswers(14)[1])
		Answer(
			question == questions(18),
			answer == availableAnswers(18)[0])
	then
		int questionIndex = 19;
        String question = questions(questionIndex);
        String[] availableAnswers = availableAnswers(questionIndex);
		String answer = frame.askQuestion(question, availableAnswers);
		insert(new Answer(question, answer));
end

rule "A national drama without loner white guys"
	when
		Answer(
			question == questions(7),
			answer == availableAnswers(7)[2])
		Answer(
			question == questions(14),
			answer == availableAnswers(14)[1])
		Answer(
			question == questions(18),
			answer == availableAnswers(18)[1])
	then
		int questionIndex = 20;
        String question = questions(questionIndex);
        String[] availableAnswers = availableAnswers(questionIndex);
		String answer = frame.askQuestion(question, availableAnswers);
		insert(new Answer(question, answer));
end

rule "A national drama without loner white guys and tin foil hats"
	when
		Answer(
			question == questions(7),
			answer == availableAnswers(7)[2])
		Answer(
			question == questions(14),
			answer == availableAnswers(14)[1])
		Answer(
			question == questions(18),
			answer == availableAnswers(18)[1])
		Answer(
			question == questions(20),
			answer == availableAnswers(20)[1])
	then
		int questionIndex = 21;
        String question = questions(questionIndex);
        String[] availableAnswers = availableAnswers(questionIndex);
		String answer = frame.askQuestion(question, availableAnswers);
		insert(new Answer(question, answer));
end
